^C:\USERS\USER\SOURCE\REPOS\HOMEWORK.18.5\HOMEWORK.18.5.CPP
C:\USERS\USER\SOURCE\REPOS\HOMEWORK.18.5\DEBUG\VC142.PDB
C:\USERS\USER\SOURCE\REPOS\HOMEWORK.18.5\DEBUG\VC142.IDB
C:\USERS\USER\SOURCE\REPOS\HOMEWORK.18.5\DEBUG\HOMEWORK.18.5.OBJ
